interactions:
- request:
    body: !!python/unicode 'nationality=Moroccan&first_name=test&last_name=test&email=test%40test.com&currency=MAD'
    headers:
      Accept: ['*/*']
      Accept-Encoding: ['gzip, deflate']
      Authorization: [Bearer sk_test_XKokBfNWv6FIYuTMg5sLPjhJ]
      Connection: [keep-alive]
      Content-Length: ['86']
      Content-Type: [application/x-www-form-urlencoded]
      Idempotency-Key: [9cccf38c-45e2-4be1-8fb0-0e84e9d41214]
      User-Agent: [python-requests/2.20.1]
    method: POST
    uri: https://api.tap.company/v2/testing
  response:
    body: {string: !!python/unicode '{"id":"cus_Rj92201858r4N52153711","object":"customer","live_mode":false,"created":"1542776907774","currency":"MAD","nationality":"Moroccan","first_name":"test","last_name":"test","email":"test@test.com"}'}
    headers:
      connection: [keep-alive]
      content-length: ['203']
      content-type: [application/json; charset=utf-8]
      date: ['Wed, 21 Nov 2018 02:08:29 GMT']
      etag: [W/"cb-GJiA/P24MSPh+hbHYphyMnD30Rw"]
      x-powered-by: [Express]
    status: {code: 200, message: OK}
- request:
    body: !!python/unicode 'nationality=Moroccan&first_name=test&last_name=test&email=test%40test.com&currency=MAD'
    headers:
      Accept: ['*/*']
      Accept-Encoding: ['gzip, deflate']
      Authorization: [Bearer sk_test_XKokBfNWv6FIYuTMg5sLPjhJ]
      Connection: [keep-alive]
      Content-Length: ['86']
      Content-Type: [application/x-www-form-urlencoded]
      Idempotency-Key: [14229292-50ac-4eba-8029-f0bf44303138]
      User-Agent: [python-requests/2.20.1]
    method: POST
    uri: https://api.tap.company/v2/customers
  response:
    body: {string: !!python/unicode '{"id":"cus_n2RP20181432e4KF2154611","object":"customer","live_mode":false,"created":"1542810734796","currency":"MAD","nationality":"Moroccan","first_name":"test","last_name":"test","email":"test@test.com"}'}
    headers:
      connection: [keep-alive]
      content-length: ['205']
      content-type: [application/json; charset=utf-8]
      date: ['Wed, 21 Nov 2018 11:32:16 GMT']
      etag: [W/"cd-DwoNeXrKTH2iDpaMv20DH/56ZHU"]
      x-powered-by: [Express]
    status: {code: 200, message: OK}
- request:
    body: null
    headers:
      Accept: ['*/*']
      Accept-Encoding: ['gzip, deflate']
      Authorization: [Bearer sk_test_XKokBfNWv6FIYuTMg5sLPjhJ]
      Connection: [keep-alive]
      Content-Type: [application/x-www-form-urlencoded]
      Idempotency-Key: [d079f3d0-b640-4885-9864-5f9fe5e07e89]
      User-Agent: [python-requests/2.20.1]
    method: GET
    uri: https://api.tap.company/v2/customers/cus_n2RP20181432e4KF2154611
  response:
    body: {string: !!python/unicode '{"id":"cus_n2RP20181432e4KF2154611","object":"customer","live_mode":false,"created":"1542810734796","currency":"MAD","nationality":"Moroccan","first_name":"test","last_name":"test","email":"test@test.com"}'}
    headers:
      connection: [keep-alive]
      content-length: ['205']
      content-type: [application/json; charset=utf-8]
      date: ['Wed, 21 Nov 2018 11:32:19 GMT']
      etag: [W/"cd-DwoNeXrKTH2iDpaMv20DH/56ZHU"]
      x-powered-by: [Express]
    status: {code: 200, message: OK}
- request:
    body: !!python/unicode 'nationality=Moroccan&first_name=new+value&last_name=new+value&email=test%40test.com&currency=MAD'
    headers:
      Accept: ['*/*']
      Accept-Encoding: ['gzip, deflate']
      Authorization: [Bearer sk_test_XKokBfNWv6FIYuTMg5sLPjhJ]
      Connection: [keep-alive]
      Content-Length: ['96']
      Content-Type: [application/x-www-form-urlencoded]
      Idempotency-Key: [93c912f0-ea86-46aa-8151-9822453a1ef7]
      User-Agent: [python-requests/2.20.1]
    method: PUT
    uri: https://api.tap.company/v2/customers/cus_n2RP20181432e4KF2154611
  response:
    body: {string: !!python/unicode '{"id":"cus_n2RP20181432e4KF2154611","object":"customer","live_mode":false,"created":"1542810734796","currency":"MAD","nationality":"Moroccan","first_name":"new
        value","last_name":"new value","email":"test@test.com"}'}
    headers:
      connection: [keep-alive]
      content-length: ['215']
      content-type: [application/json; charset=utf-8]
      date: ['Wed, 21 Nov 2018 11:32:22 GMT']
      etag: [W/"d7-rCUv1MmC+OPzIY+WhJd5ZrIiB78"]
      x-powered-by: [Express]
    status: {code: 200, message: OK}
- request:
    body: null
    headers:
      Accept: ['*/*']
      Accept-Encoding: ['gzip, deflate']
      Authorization: [Bearer sk_test_XKokBfNWv6FIYuTMg5sLPjhJ]
      Connection: [keep-alive]
      Content-Length: ['0']
      Content-Type: [application/x-www-form-urlencoded]
      Idempotency-Key: [53fe4f1f-22ee-4793-8b2e-24aea79d696e]
      User-Agent: [python-requests/2.20.1]
    method: DELETE
    uri: https://api.tap.company/v2/customers/cus_n2RP20181432e4KF2154611?id=cus_n2RP20181432e4KF2154611
  response:
    body: {string: !!python/unicode '{"id":"cus_n2RP20181432e4KF2154611","deleted":true}'}
    headers:
      connection: [keep-alive]
      content-length: ['51']
      content-type: [application/json; charset=utf-8]
      date: ['Wed, 21 Nov 2018 11:32:25 GMT']
      etag: [W/"33-eKBHXdsIhX93hiuw2MYvpFJ5Btk"]
      x-powered-by: [Express]
    status: {code: 200, message: OK}
- request:
    body: null
    headers:
      Accept: ['*/*']
      Accept-Encoding: ['gzip, deflate']
      Authorization: [Bearer sk_test_XKokBfNWv6FIYuTMg5sLPjhJ]
      Connection: [keep-alive]
      Content-Length: ['0']
      Content-Type: [application/x-www-form-urlencoded]
      Idempotency-Key: [579526d9-889c-4473-a677-45bec885f326]
      User-Agent: [python-requests/2.20.1]
    method: POST
    uri: https://api.tap.company/v2/customers/list
  response:
    body: {string: !!python/unicode '{"object":"list","live_mode":false,"api_version":"V2","count":25,"has_more":true,"customers":[{"id":"cus_Zh5j20181430s5KD2145211","object":"customer","live_mode":false,"created":"1542810601775","first_name":"test","middle_name":"test","last_name":"test","phone":{"country_code":"965","number":"50000000"}},{"id":"cus_g9JQ20181426Pp9r212211","object":"customer","live_mode":false,"created":"1542810408214","currency":"MAD","nationality":"Moroccan","first_name":"test","last_name":"test","email":"test@test.com"},{"id":"cus_Qn4920181426g4OK2172311","object":"customer","live_mode":false,"created":"1542810395926","first_name":"test","middle_name":"test","last_name":"test","phone":{"country_code":"965","number":"50000000"}},{"id":"cus_Nm5r20181420Pt452194811","object":"customer","live_mode":false,"created":"1542810055217","first_name":"test","middle_name":"test","last_name":"test","phone":{"country_code":"965","number":"50000000"}},{"id":"cus_l9TB20181420b2YJ2180611","object":"customer","live_mode":false,"created":"1542810052170","first_name":"test","middle_name":"test","last_name":"test","email":"test@test.com","phone":{"country_code":"965","number":"50000000"}},{"id":"cus_Jm9x20181420n4K92139611","object":"customer","live_mode":false,"created":"1542810007722","currency":"MAD","nationality":"Moroccan","first_name":"test","last_name":"test","email":"test@test.com"},{"id":"cus_b9ZP20181420Ha452134511","object":"customer","live_mode":false,"created":"1542810004634","currency":"MAD","nationality":"Moroccan","first_name":"test","last_name":"test","email":"test@test.com"},{"id":"cus_Kb5920181420g5Y92117911","object":"customer","live_mode":false,"created":"1542810001563","currency":"MAD","nationality":"Moroccan","first_name":"test","last_name":"test","email":"test@test.com"},{"id":"cus_Rp4420181419c5P92140311","object":"customer","live_mode":false,"created":"1542809993751","currency":"MAD","nationality":"Moroccan","first_name":"test","last_name":"test","email":"test@test.com"},{"id":"cus_a4D520181413w9B22159011","object":"customer","live_mode":false,"created":"1542809611782","first_name":"Nandani","middle_name":"","last_name":"Choudhary","email":"nandanik@tiinfotech.com","phone":{"country_code":"+965","number":"7894561231"}},{"id":"cus_Mq2520181412Om4s2124611","object":"customer","live_mode":false,"created":"1542809559595","first_name":"Nandani","middle_name":"","last_name":"Choudhary","email":"nandanik@tiinfotech.com","phone":{"country_code":"+965","number":"7894561231"}},{"id":"cus_Bk5t2018149x9P42110011","object":"customer","live_mode":false,"created":"1542809356333","currency":"MAD","nationality":"Moroccan","first_name":"test","last_name":"test","email":"test@test.com"},{"id":"cus_Lm9x2018149Mm422137511","object":"customer","live_mode":false,"created":"1542809348572","currency":"MAD","nationality":"Moroccan","first_name":"test","last_name":"test","email":"test@test.com"},{"id":"cus_Nb4q2018148x4NR216811","object":"customer","live_mode":false,"created":"1542809336273","currency":"MAD","nationality":"Moroccan","first_name":"test","last_name":"test","email":"test@test.com"},{"id":"cus_Xg922018148e5OY2145311","object":"customer","live_mode":false,"created":"1542809329657","currency":"MAD","nationality":"Moroccan","first_name":"test","last_name":"test","email":"test@test.com"},{"id":"cus_o4OK2018148j9XH2189411","object":"customer","live_mode":false,"created":"1542809322108","currency":"MAD","nationality":"Moroccan","first_name":"test","last_name":"test","email":"test@test.com"},{"id":"cus_Mm4w2018141Zw522154711","object":"customer","live_mode":false,"created":"1542808906792","currency":"MAD","nationality":"Moroccan","first_name":"Laura","last_name":"Herring","email":"katelynbennett@hotmail.com"},{"id":"cus_t2DP2018141Fx942135311","object":"customer","live_mode":false,"created":"1542808898588","currency":"MAD","nationality":"Moroccan","first_name":"Laura","last_name":"Herring","email":"katelynbennett@hotmail.com"},{"id":"cus_i5K420181359p2J92135211","object":"customer","live_mode":false,"created":"1542808794802","currency":"MAD","nationality":"Moroccan","first_name":"Laura","last_name":"Herring","email":"katelynbennett@hotmail.com"},{"id":"cus_s9XP20181359Qy4t2192711","object":"customer","live_mode":false,"created":"1542808771154","currency":"MAD","nationality":"Moroccan","first_name":"Matthew","last_name":"Duncan","email":"riveraraymond@gmail.com"},{"id":"cus_t9QH20181355Oo4i2142711","object":"customer","live_mode":false,"created":"1542808551634","currency":"MAD","nationality":"Moroccan","first_name":"Laura","last_name":"Herring","email":"katelynbennett@hotmail.com"},{"id":"cus_o9R420181355Hq5g2193011","object":"customer","live_mode":false,"created":"1542808544173","currency":"MAD","nationality":"Moroccan","first_name":"Laura","last_name":"Herring","email":"katelynbennett@hotmail.com"},{"id":"cus_l9N420181353Pj2g2136011","object":"customer","live_mode":false,"created":"1542808402593","currency":"MAD","nationality":"Moroccan","first_name":"Matthew","last_name":"Duncan","email":"riveraraymond@gmail.com"},{"id":"cus_x9MB20181349y4ZR212511","object":"customer","live_mode":false,"created":"1542808177213","currency":"MAD","nationality":"Moroccan","first_name":"Laura","last_name":"Herring","email":"katelynbennett@hotmail.com"},{"id":"cus_b4Z920181345k5OD216111","object":"customer","live_mode":false,"created":"1542807954327","first_name":"First","middle_name":"","last_name":"Name","email":"email@email.com","phone":{"country_code":"965","number":"333333333"}}]}'}
    headers:
      connection: [keep-alive]
      content-length: ['5538']
      content-type: [application/json; charset=utf-8]
      date: ['Wed, 21 Nov 2018 11:32:29 GMT']
      etag: [W/"15a2-6SVgZx/7FnzTLrrrKm+NDtSzawk"]
      x-powered-by: [Express]
    status: {code: 200, message: OK}
version: 1
